sim/xrun.log
xrun(64): 23.09-s003: (c) Copyright 1995-2023 Cadence Design Systems, Inc.
TOOL:	xrun(64)	23.09-s003: Started on May 10, 2026 at 17:51:11 -03
xrun
	../tb/tb.sv
	../rtl/im2col.sv
	-access +rwc
	-gui
Recompiling... reason: file '../rtl/im2col.sv' is newer than expected.
	expected: Sun May 10 17:46:42 2026
	actual:   Sun May 10 17:47:42 2026
file: ../rtl/im2col.sv
	module worklib.img2row:sv
		errors: 0, warnings: 0
		Caching library 'worklib' ....... Done
	Elaborating the design hierarchy:
img2row #(.WIDTH(WIDTH),.SIZE_KER(SIZE_KER),.SIZE_WINDOW(SIZE_WINDOW))inst0(
                                                                          |
xmelab: *W,CUVWSI (../tb/tb.sv,69|74): 1 input port was not connected:
xmelab: (../rtl/im2col.sv,24): ena_mc

	Top level design units:
		tb
	Building instance overlay tables: .................... Done
	Generating native compiled code:
		worklib.tb:sv <0x4a6e02c8>
			streams:  14, words: 10103
		worklib.img2row:sv <0x1269ad31>
			streams:  13, words: 16233
	Building instance specific data structures.
	Loading native compiled code:     .................... Done
	Design hierarchy summary:
		              Instances  Unique
		Modules:              2       2
		Registers:           30      30
		Scalar wires:         9       -
		Vectored wires:      44       -
		Always blocks:        4       4
		Initial blocks:       3       3
		Cont. assignments:   43       6
		Pseudo assignments:   7       -
	Writing initial simulation snapshot: worklib.tb:sv
xmsim: *W,NOMTDGUI: Multi-Threaded Dumping is disabled for interactive debug mode.

-------------------------------------
Relinquished control to SimVision...
xcelium> 
xcelium> source /Tools/cadence/XCELIUM2309/tools/xcelium/files/xmsimrc
xcelium> database -open waves -into waves.shm -default
Created default SHM database waves
xcelium> probe -create -shm tb.inst0.clk tb.inst0.col tb.inst0.col_next tb.inst0.colout tb.inst0.currentStateTransformUnit tb.inst0.ena_mc tb.inst0.img tb.inst0.is_col_oob tb.inst0.is_row_oob tb.inst0.nextStateTransformUnit tb.inst0.patch_idx tb.inst0.patch_idx_next tb.inst0.ready_o tb.inst0.row tb.inst0.row_next tb.inst0.rready_i tb.inst0.rst_n_sync tb.inst0.rvalid_o tb.inst0.valid_i tb.inst0.window0 tb.inst0.window_f0 tb.inst0.zero_pad
Created probe 1
xcelium> run
Tamanho da matriz de saída          16
          1            2            3            4            5            6  

          7            8            9           10           11           12  

         13           14           15           16           17           18  

         19           20           21           22           23           24  

         25           26           27           28           29           30  

         31           32           33           34           35           36  

  1    2    3    7    8    9   13   14   15    0    0    0    0    0    0    0  

  2    3    4    8    9   10   14   15   16    0    0    0    0    0    0    0  

  3    4    5    9   10   11   15   16   17    0    0    0    0    0    0    0  

  4    5    6   10   11   12   16   17   18    0    0    0    0    0    0    0  

  7    8    9   13   14   15   19   20   21    0    0    0    0    0    0    0  

  8    9   10   14   15   16   20   21   22    0    0    0    0    0    0    0  

  9   10   11   15   16   17   21   22   23    0    0    0    0    0    0    0  

 10   11   12   16   17   18   22   23   24    0    0    0    0    0    0    0  

 13   14   15   19   20   21   25   26   27    0    0    0    0    0    0    0  

 14   15   16   20   21   22   26   27   28    0    0    0    0    0    0    0  

 15   16   17   21   22   23   27   28   29    0    0    0    0    0    0    0  

 16   17   18   22   23   24   28   29   30    0    0    0    0    0    0    0  

 19   20   21   25   26   27   31   32   33    0    0    0    0    0    0    0  

 20   21   22   26   27   28   32   33   34    0    0    0    0    0    0    0  

 21   22   23   27   28   29   33   34   35    0    0    0    0    0    0    0  

 22   23   24   28   29   30   34   35   36    0    0    0    0    0    0    0  

Simulation complete via $finish(1) at time 70 NS + 0
../tb/tb.sv:65             $finish;
xcelium> ^C
xcelium> exit
...Regained control from SimVision
-------------------------------------
TOOL:	xrun(64)	23.09-s003: Exiting on May 10, 2026 at 17:52:56 -03  (total: 00:01:45)
