sim/xrun.log
xrun(64): 23.09-s003: (c) Copyright 1995-2023 Cadence Design Systems, Inc.
TOOL:	xrun(64)	23.09-s003: Started on May 05, 2026 at 17:52:19 -03
xrun
	../tb/tb.sv
	../rtl/im2col.sv
Recompiling... reason: file '../tb/tb.sv' is newer than expected.
	expected: Tue May  5 17:52:03 2026
	actual:   Tue May  5 17:52:16 2026
file: ../tb/tb.sv
	module worklib.tb:sv
		errors: 0, warnings: 0
		Caching library 'worklib' ....... Done
	Elaborating the design hierarchy:
	Top level design units:
		tb
	Building instance overlay tables: .................... Done
	Generating native compiled code:
		worklib.tb:sv <0x1282a4ed>
			streams:  11, words:  8665
	Building instance specific data structures.
	Loading native compiled code:     .................... Done
	Design hierarchy summary:
		              Instances  Unique
		Modules:              2       2
		Registers:           29      29
		Scalar wires:         9       -
		Vectored wires:      14       -
		Always blocks:        4       4
		Initial blocks:       3       3
		Cont. assignments:   14       6
		Pseudo assignments:   4       -
	Writing initial simulation snapshot: worklib.tb:sv
Loading snapshot worklib.tb:sv .................... Done
xcelium> source /Tools/cadence/XCELIUM2309/tools/xcelium/files/xmsimrc
xcelium> run
Tamanho da matriz de saída          16
          1            2            3            4            5            6  

          7            8            9           10           11           12  

         13           14           15           16           17           18  

         19           20           21           22           23           24  

         25           26           27           28           29           30  

         31           32           33           34           35           36  

  1    2    3    7    8    9   13   14   15    0    0    0    0    0    0    0  

  2    3    4    8    9   10   14   15   16    0    0    0    0    0    0    0  

  3    4    5    9   10   11   15   16   17    0    0    0    0    0    0    0  

  4    5    6   10   11   12   16   17   18    0    0    0    0    0    0    0  

  7    8    9   13   14   15   19   20   21    0    0    0    0    0    0    0  

  8    9   10   14   15   16   20   21   22    0    0    0    0    0    0    0  

  9   10   11   15   16   17   21   22   23    0    0    0    0    0    0    0  

 10   11   12   16   17   18   22   23   24    0    0    0    0    0    0    0  

 13   14   15   19   20   21   25   26   27    0    0    0    0    0    0    0  

 14   15   16   20   21   22   26   27   28    0    0    0    0    0    0    0  

 15   16   17   21   22   23   27   28   29    0    0    0    0    0    0    0  

 16   17   18   22   23   24   28   29   30    0    0    0    0    0    0    0  

 19   20   21   25   26   27   31   32   33    0    0    0    0    0    0    0  

 20   21   22   26   27   28   32   33   34    0    0    0    0    0    0    0  

 21   22   23   27   28   29   33   34   35    0    0    0    0    0    0    0  

 22   23   24   28   29   30   34   35   36    0    0    0    0    0    0    0  

Simulation complete via $finish(1) at time 118 NS + 0
../tb/tb.sv:65             $finish;
xcelium> exit
TOOL:	xrun(64)	23.09-s003: Exiting on May 05, 2026 at 17:52:19 -03  (total: 00:00:00)
